vedic_multiplier/dump.vcd
$date
	Mon Jun 29 10:39:50 2026
$end
$version
	Icarus Verilog
$end
$timescale
	1ps
$end
$scope module test_8x8 $end
$var wire 16 ! result [15:0] $end
$var reg 8 " a [7:0] $end
$var reg 8 # b [7:0] $end
$scope module V0 $end
$var wire 8 $ a [7:0] $end
$var wire 8 % b [7:0] $end
$var parameter 32 & N $end
$var reg 16 ' result [15:0] $end
$scope begin DIAG[0] $end
$var parameter 32 ( END_IDX $end
$var parameter 32 ) START_IDX $end
$var parameter 2 * g_k $end
$scope begin $unm_blk_1 $end
$var integer 32 + sum [31:0] $end
$scope begin $ivl_for_loop0 $end
$var integer 32 , r [31:0] $end
$upscope $end
$upscope $end
$upscope $end
$scope begin DIAG[1] $end
$var parameter 32 - END_IDX $end
$var parameter 32 . START_IDX $end
$var parameter 2 / g_k $end
$scope begin $unm_blk_1 $end
$var integer 32 0 sum [31:0] $end
$scope begin $ivl_for_loop0 $end
$var integer 32 1 r [31:0] $end
$upscope $end
$upscope $end
$upscope $end
$scope begin DIAG[2] $end
$var parameter 32 2 END_IDX $end
$var parameter 32 3 START_IDX $end
$var parameter 3 4 g_k $end
$scope begin $unm_blk_1 $end
$var integer 32 5 sum [31:0] $end
$scope begin $ivl_for_loop0 $end
$var integer 32 6 r [31:0] $end
$upscope $end
$upscope $end
$upscope $end
$scope begin DIAG[3] $end
$var parameter 32 7 END_IDX $end
$var parameter 32 8 START_IDX $end
$var parameter 3 9 g_k $end
$scope begin $unm_blk_1 $end
$var integer 32 : sum [31:0] $end
$scope begin $ivl_for_loop0 $end
$var integer 32 ; r [31:0] $end
$upscope $end
$upscope $end
$upscope $end
$scope begin DIAG[4] $end
$var parameter 32 < END_IDX $end
$var parameter 32 = START_IDX $end
$var parameter 4 > g_k $end
$scope begin $unm_blk_1 $end
$var integer 32 ? sum [31:0] $end
$scope begin $ivl_for_loop0 $end
$var integer 32 @ r [31:0] $end
$upscope $end
$upscope $end
$upscope $end
$scope begin DIAG[5] $end
$var parameter 32 A END_IDX $end
$var parameter 32 B START_IDX $end
$var parameter 4 C g_k $end
$scope begin $unm_blk_1 $end
$var integer 32 D sum [31:0] $end
$scope begin $ivl_for_loop0 $end
$var integer 32 E r [31:0] $end
$upscope $end
$upscope $end
$upscope $end
$scope begin DIAG[6] $end
$var parameter 32 F END_IDX $end
$var parameter 32 G START_IDX $end
$var parameter 4 H g_k $end
$scope begin $unm_blk_1 $end
$var integer 32 I sum [31:0] $end
$scope begin $ivl_for_loop0 $end
$var integer 32 J r [31:0] $end
$upscope $end
$upscope $end
$upscope $end
$scope begin DIAG[7] $end
$var parameter 32 K END_IDX $end
$var parameter 32 L START_IDX $end
$var parameter 4 M g_k $end
$scope begin $unm_blk_1 $end
$var integer 32 N sum [31:0] $end
$scope begin $ivl_for_loop0 $end
$var integer 32 O r [31:0] $end
$upscope $end
$upscope $end
$upscope $end
$scope begin DIAG[8] $end
$var parameter 32 P END_IDX $end
$var parameter 32 Q START_IDX $end
$var parameter 5 R g_k $end
$scope begin $unm_blk_1 $end
$var integer 32 S sum [31:0] $end
$scope begin $ivl_for_loop0 $end
$var integer 32 T r [31:0] $end
$upscope $end
$upscope $end
$upscope $end
$scope begin DIAG[9] $end
$var parameter 32 U END_IDX $end
$var parameter 32 V START_IDX $end
$var parameter 5 W g_k $end
$scope begin $unm_blk_1 $end
$var integer 32 X sum [31:0] $end
$scope begin $ivl_for_loop0 $end
$var integer 32 Y r [31:0] $end
$upscope $end
$upscope $end
$upscope $end
$scope begin DIAG[10] $end
$var parameter 32 Z END_IDX $end
$var parameter 32 [ START_IDX $end
$var parameter 5 \ g_k $end
$scope begin $unm_blk_1 $end
$var integer 32 ] sum [31:0] $end
$scope begin $ivl_for_loop0 $end
$var integer 32 ^ r [31:0] $end
$upscope $end
$upscope $end
$upscope $end
$scope begin DIAG[11] $end
$var parameter 32 _ END_IDX $end
$var parameter 32 ` START_IDX $end
$var parameter 5 a g_k $end
$scope begin $unm_blk_1 $end
$var integer 32 b sum [31:0] $end
$scope begin $ivl_for_loop0 $end
$var integer 32 c r [31:0] $end
$upscope $end
$upscope $end
$upscope $end
$scope begin DIAG[12] $end
$var parameter 32 d END_IDX $end
$var parameter 32 e START_IDX $end
$var parameter 5 f g_k $end
$scope begin $unm_blk_1 $end
$var integer 32 g sum [31:0] $end
$scope begin $ivl_for_loop0 $end
$var integer 32 h r [31:0] $end
$upscope $end
$upscope $end
$upscope $end
$scope begin DIAG[13] $end
$var parameter 32 i END_IDX $end
$var parameter 32 j START_IDX $end
$var parameter 5 k g_k $end
$scope begin $unm_blk_1 $end
$var integer 32 l sum [31:0] $end
$scope begin $ivl_for_loop0 $end
$var integer 32 m r [31:0] $end
$upscope $end
$upscope $end
$upscope $end
$scope begin DIAG[14] $end
$var parameter 32 n END_IDX $end
$var parameter 32 o START_IDX $end
$var parameter 5 p g_k $end
$scope begin $unm_blk_1 $end
$var integer 32 q sum [31:0] $end
$scope begin $ivl_for_loop0 $end
$var integer 32 r r [31:0] $end
$upscope $end
$upscope $end
$upscope $end
$scope begin ROW[0] $end
$var parameter 2 s g_r $end
$scope begin COL[0] $end
$var parameter 2 t g_c $end
$upscope $end
$scope begin COL[1] $end
$var parameter 2 u g_c $end
$upscope $end
$scope begin COL[2] $end
$var parameter 3 v g_c $end
$upscope $end
$scope begin COL[3] $end
$var parameter 3 w g_c $end
$upscope $end
$scope begin COL[4] $end
$var parameter 4 x g_c $end
$upscope $end
$scope begin COL[5] $end
$var parameter 4 y g_c $end
$upscope $end
$scope begin COL[6] $end
$var parameter 4 z g_c $end
$upscope $end
$scope begin COL[7] $end
$var parameter 4 { g_c $end
$upscope $end
$upscope $end
$scope begin ROW[1] $end
$var parameter 2 | g_r $end
$scope begin COL[0] $end
$var parameter 2 } g_c $end
$upscope $end
$scope begin COL[1] $end
$var parameter 2 ~ g_c $end
$upscope $end
$scope begin COL[2] $end
$var parameter 3 !" g_c $end
$upscope $end
$scope begin COL[3] $end
$var parameter 3 "" g_c $end
$upscope $end
$scope begin COL[4] $end
$var parameter 4 #" g_c $end
$upscope $end
$scope begin COL[5] $end
$var parameter 4 $" g_c $end
$upscope $end
$scope begin COL[6] $end
$var parameter 4 %" g_c $end
$upscope $end
$scope begin COL[7] $end
$var parameter 4 &" g_c $end
$upscope $end
$upscope $end
$scope begin ROW[2] $end
$var parameter 3 '" g_r $end
$scope begin COL[0] $end
$var parameter 2 (" g_c $end
$upscope $end
$scope begin COL[1] $end
$var parameter 2 )" g_c $end
$upscope $end
$scope begin COL[2] $end
$var parameter 3 *" g_c $end
$upscope $end
$scope begin COL[3] $end
$var parameter 3 +" g_c $end
$upscope $end
$scope begin COL[4] $end
$var parameter 4 ," g_c $end
$upscope $end
$scope begin COL[5] $end
$var parameter 4 -" g_c $end
$upscope $end
$scope begin COL[6] $end
$var parameter 4 ." g_c $end
$upscope $end
$scope begin COL[7] $end
$var parameter 4 /" g_c $end
$upscope $end
$upscope $end
$scope begin ROW[3] $end
$var parameter 3 0" g_r $end
$scope begin COL[0] $end
$var parameter 2 1" g_c $end
$upscope $end
$scope begin COL[1] $end
$var parameter 2 2" g_c $end
$upscope $end
$scope begin COL[2] $end
$var parameter 3 3" g_c $end
$upscope $end
$scope begin COL[3] $end
$var parameter 3 4" g_c $end
$upscope $end
$scope begin COL[4] $end
$var parameter 4 5" g_c $end
$upscope $end
$scope begin COL[5] $end
$var parameter 4 6" g_c $end
$upscope $end
$scope begin COL[6] $end
$var parameter 4 7" g_c $end
$upscope $end
$scope begin COL[7] $end
$var parameter 4 8" g_c $end
$upscope $end
$upscope $end
$scope begin ROW[4] $end
$var parameter 4 9" g_r $end
$scope begin COL[0] $end
$var parameter 2 :" g_c $end
$upscope $end
$scope begin COL[1] $end
$var parameter 2 ;" g_c $end
$upscope $end
$scope begin COL[2] $end
$var parameter 3 <" g_c $end
$upscope $end
$scope begin COL[3] $end
$var parameter 3 =" g_c $end
$upscope $end
$scope begin COL[4] $end
$var parameter 4 >" g_c $end
$upscope $end
$scope begin COL[5] $end
$var parameter 4 ?" g_c $end
$upscope $end
$scope begin COL[6] $end
$var parameter 4 @" g_c $end
$upscope $end
$scope begin COL[7] $end
$var parameter 4 A" g_c $end
$upscope $end
$upscope $end
$scope begin ROW[5] $end
$var parameter 4 B" g_r $end
$scope begin COL[0] $end
$var parameter 2 C" g_c $end
$upscope $end
$scope begin COL[1] $end
$var parameter 2 D" g_c $end
$upscope $end
$scope begin COL[2] $end
$var parameter 3 E" g_c $end
$upscope $end
$scope begin COL[3] $end
$var parameter 3 F" g_c $end
$upscope $end
$scope begin COL[4] $end
$var parameter 4 G" g_c $end
$upscope $end
$scope begin COL[5] $end
$var parameter 4 H" g_c $end
$upscope $end
$scope begin COL[6] $end
$var parameter 4 I" g_c $end
$upscope $end
$scope begin COL[7] $end
$var parameter 4 J" g_c $end
$upscope $end
$upscope $end
$scope begin ROW[6] $end
$var parameter 4 K" g_r $end
$scope begin COL[0] $end
$var parameter 2 L" g_c $end
$upscope $end
$scope begin COL[1] $end
$var parameter 2 M" g_c $end
$upscope $end
$scope begin COL[2] $end
$var parameter 3 N" g_c $end
$upscope $end
$scope begin COL[3] $end
$var parameter 3 O" g_c $end
$upscope $end
$scope begin COL[4] $end
$var parameter 4 P" g_c $end
$upscope $end
$scope begin COL[5] $end
$var parameter 4 Q" g_c $end
$upscope $end
$scope begin COL[6] $end
$var parameter 4 R" g_c $end
$upscope $end
$scope begin COL[7] $end
$var parameter 4 S" g_c $end
$upscope $end
$upscope $end
$scope begin ROW[7] $end
$var parameter 4 T" g_r $end
$scope begin COL[0] $end
$var parameter 2 U" g_c $end
$upscope $end
$scope begin COL[1] $end
$var parameter 2 V" g_c $end
$upscope $end
$scope begin COL[2] $end
$var parameter 3 W" g_c $end
$upscope $end
$scope begin COL[3] $end
$var parameter 3 X" g_c $end
$upscope $end
$scope begin COL[4] $end
$var parameter 4 Y" g_c $end
$upscope $end
$scope begin COL[5] $end
$var parameter 4 Z" g_c $end
$upscope $end
$scope begin COL[6] $end
$var parameter 4 [" g_c $end
$upscope $end
$scope begin COL[7] $end
$var parameter 4 \" g_c $end
$upscope $end
$upscope $end
$scope begin $unm_blk_3 $end
$var reg 32 ]" carry [31:0] $end
$var reg 32 ^" final_sum [31:0] $end
$scope begin $ivl_for_loop1 $end
$var integer 32 _" k [31:0] $end
$upscope $end
$upscope $end
$upscope $end
$upscope $end
$enddefinitions $end
$comment Show the parameter values. $end
$dumpall
b111 \"
b110 ["
b101 Z"
b100 Y"
b11 X"
b10 W"
b1 V"
b0 U"
b111 T"
b111 S"
b110 R"
b101 Q"
b100 P"
b11 O"
b10 N"
b1 M"
b0 L"
b110 K"
b111 J"
b110 I"
b101 H"
b100 G"
b11 F"
b10 E"
b1 D"
b0 C"
b101 B"
b111 A"
b110 @"
b101 ?"
b100 >"
b11 ="
b10 <"
b1 ;"
b0 :"
b100 9"
b111 8"
b110 7"
b101 6"
b100 5"
b11 4"
b10 3"
b1 2"
b0 1"
b11 0"
b111 /"
b110 ."
b101 -"
b100 ,"
b11 +"
b10 *"
b1 )"
b0 ("
b10 '"
b111 &"
b110 %"
b101 $"
b100 #"
b11 ""
b10 !"
b1 ~
b0 }
b1 |
b111 {
b110 z
b101 y
b100 x
b11 w
b10 v
b1 u
b0 t
b0 s
b1110 p
b111 o
b111 n
b1101 k
b110 j
b111 i
b1100 f
b101 e
b111 d
b1011 a
b100 `
b111 _
b1010 \
b11 [
b111 Z
b1001 W
b10 V
b111 U
b1000 R
b1 Q
b111 P
b111 M
b0 L
b111 K
b110 H
b0 G
b110 F
b101 C
b0 B
b101 A
b100 >
b0 =
b100 <
b11 9
b0 8
b11 7
b10 4
b0 3
b10 2
b1 /
b0 .
b1 -
b0 *
b0 )
b0 (
b1000 &
$end
#0
$dumpvars
b1111 _"
b0 ^"
b0 ]"
b1000 r
b0 q
b1000 m
b0 l
b1000 h
b1 g
b1000 c
b0 b
b1000 ^
b0 ]
b1000 Y
b1 X
b1000 T
b0 S
b1000 O
b0 N
b111 J
b0 I
b110 E
b1 D
b101 @
b0 ?
b100 ;
b0 :
b11 6
b1 5
b10 1
b0 0
b1 ,
b0 +
b1001000100100 '
b10000001 %
b100100 $
b10000001 #
b100100 "
b1001000100100 !
$end
#1000
b0 ^"
b1111 _"
b1101111011 !
b1101111011 '
b1 +
b1 ,
b1 0
b10 1
b11 6
b0 5
b1 :
b100 ;
b1 ?
b101 @
b110 E
b1 D
b1 I
b111 J
b1000 O
b1 S
b1000 T
b1000 Y
b1 X
b1000 ^
b1000 c
b1000 h
b0 g
b1000 m
b1000 r
b1100011 #
b1100011 %
b1001 "
b1001 $
#2000
b0 ]"
b0 ^"
b1111 _"
b11100101001 !
b11100101001 '
b1 ,
b1 +
b10 1
b0 0
b10 5
b11 6
b100 ;
b10 :
b101 @
b1 ?
b110 E
b10 D
b111 J
b1 I
b1 N
b1000 O
b1000 T
b0 S
b1000 Y
b1 X
b1 ]
b1000 ^
b1000 c
b1000 h
b1000 m
b1000 r
b10001101 #
b10001101 %
b1101 "
b1101 $
#3000
b0 ]"
b0 ^"
b1111 _"
b11100011010 !
b11100011010 '
b1 ,
b0 +
b1 0
b10 1
b11 6
b0 5
b100 ;
b1 :
b101 @
b1 ?
b110 E
b0 D
b111 J
b10 I
b1000 O
b1 N
b1000 T
b1000 Y
b1 X
b1000 ^
b1 ]
b1000 c
b1000 h
b1000 m
b1000 r
b10010 #
b10010 %
b1100101 "
b1100101 $
#4000
b0 ^"
b1111 _"
b1101 !
b1101 '
b1 +
b1 ,
b10 1
b0 0
b1 5
b11 6
b100 ;
b1 :
b101 @
b0 ?
b110 E
b111 J
b0 I
b1000 O
b0 N
b1000 T
b1000 Y
b0 X
b1000 ^
b0 ]
b1000 c
b1000 h
b1000 m
b1000 r
b1101 #
b1101 %
b1 "
b1 $
#5000
b0 ]"
b0 ^"
b1111 _"
b1110000011110 !
b1110000011110 '
b1 ,
b0 +
b1 0
b10 1
b11 6
b1 5
b100 ;
b1 :
b11 ?
b101 @
b11 D
b110 E
b100 I
b111 J
b11 N
b1000 O
b11 S
b1000 T
b11 X
b1000 Y
b10 ]
b1000 ^
b1 b
b1000 c
b1000 h
b1000 m
b1000 r
b111101 #
b111101 %
b1110110 "
b1110110 $
#6000
b1 ]"
b10 ^"
b1111 _"
b1000000110011100 !
b1000000110011100 '
b1 ,
b10 1
b0 0
b11 6
b1 5
b100 ;
b1 :
b101 @
b1 ?
b110 E
b10 D
b111 J
b1 I
b1000 O
b10 N
b1000 T
b10 S
b1000 Y
b11 X
b1000 ^
b10 ]
b1000 c
b0 b
b1 g
b1000 h
b1 l
b1000 m
b1 q
b1000 r
b10001100 #
b10001100 %
b11101101 "
b11101101 $
#7000
b11 ^"
b1111 _"
b1 ]"
b1100000010010110 !
b1100000010010110 '
b1 ,
b1 0
b10 1
b11 6
b1 5
b100 ;
b0 :
b101 @
b1 ?
b110 E
b10 D
b111 J
b11 I
b1000 O
b11 N
b1000 T
b10 S
b1000 Y
b10 X
b1000 ^
b10 ]
b10 b
b1000 c
b1000 h
b10 g
b1000 m
b10 l
b1000 r
b1 q
b11000110 #
b11000110 %
b11111001 "
b11111001 $
#8000
b10 ^"
b1111 _"
b1 ]"
b1000001011010010 !
b1000001011010010 '
b1 ,
b10 1
b1 0
b11 6
b0 5
b10 :
b100 ;
b101 @
b0 ?
b110 E
b10 D
b111 J
b0 I
b1000 O
b11 N
b1000 T
b1 S
b1000 Y
b10 X
b1000 ^
b1 ]
b1000 c
b1 b
b1000 h
b1 g
b1000 m
b1 l
b1000 r
b1 q
b10101010 #
b10101010 %
b11000101 "
b11000101 $
#9000
b1 ^"
b1111 _"
b0 ]"
b110101001110011 !
b110101001110011 '
b1 +
b1 ,
b10 1
b1 0
b10 5
b11 6
b100 ;
b1 :
b10 ?
b101 @
b110 E
b10 D
b100 I
b111 J
b1000 O
b100 N
b1000 T
b11 S
b1000 Y
b10 X
b1000 ^
b10 ]
b1000 c
b11 b
b1000 h
b10 g
b1000 m
b1 l
b1000 r
b0 q
b1110111 #
b1110111 %
b11100101 "
b11100101 $
#10000
b0 ]"
b0 ^"
b1111 _"
b101000001110 !
b101000001110 '
b1 ,
b0 +
b10 1
b1 0
b11 6
b1 5
b100 ;
b1 :
b101 @
b10 ?
b110 E
b1 D
b111 J
b1 I
b1000 O
b1 N
b1000 T
b1 S
b1000 Y
b0 X
b1000 ^
b0 ]
b1000 c
b1 b
b1000 h
b0 g
b1000 m
b0 l
b1000 r
b10001111 #
b10001111 %
b10010 "
b10010 $
#11000
b1 ]"
b11 ^"
b1111 _"
b1100001010111100 !
b1100001010111100 '
b1 ,
b10 1
b0 0
b11 6
b1 5
b100 ;
b1 :
b101 @
b1 ?
b110 E
b1 D
b111 J
b10 I
b1000 O
b100 N
b1000 T
b100 S
b10 X
b1000 Y
b10 ]
b1000 ^
b1000 c
b10 b
b10 g
b1000 h
b10 l
b1000 m
b1 q
b1000 r
b11001110 #
b11001110 %
b11110010 "
b11110010 $
#12000
b10 ^"
b1111 _"
b1 ]"
b1011001010001000 !
b1011001010001000 '
b1 ,
b10 1
b11 6
b0 5
b100 ;
b1 :
b101 @
b0 ?
b110 E
b10 D
b111 J
b1 I
b1000 O
b10 N
b1000 T
b1 S
b1000 Y
b10 X
b1000 ^
b1 ]
b1000 c
b1 b
b1000 h
b10 g
b1000 m
b10 l
b1000 r
b1 q
b11000101 #
b11000101 %
b11101000 "
b11101000 $
#13000
b1 ^"
b1111 _"
b0 ]"
b100001111101100 !
b100001111101100 '
b1 ,
b10 1
b1 5
b11 6
b100 ;
b1 :
b10 ?
b101 @
b110 E
b10 D
b111 J
b100 I
b1000 O
b11 N
b1000 T
b11 S
b1000 Y
b11 X
b1000 ^
b10 ]
b1000 c
b10 b
b1000 h
b0 g
b1000 m
b1 l
b1000 r
b0 q
b10111101 #
b10111101 %
b1011100 "
b1011100 $
#14000
b0 ]"
b0 ^"
b1111 _"
b1000111000001 !
b1000111000001 '
b1 +
b1 ,
b10 1
b11 6
b10 5
b100 ;
b1 :
b101 @
b1 ?
b110 E
b11 D
b111 J
b1 I
b1000 O
b10 N
b1000 T
b10 S
b1000 Y
b1 X
b1000 ^
b1 ]
b1000 c
b1 b
b1000 h
b1000 m
b0 l
b1000 r
b1100101 #
b1100101 %
b101101 "
b101101 $
#15000
b0 ^"
b1111 _"
b1111011110 !
b1111011110 '
b1 ,
b0 +
b1 0
b10 1
b11 6
b1 5
b100 ;
b1 :
b101 @
b1 ?
b110 E
b0 D
b111 J
b1 I
b1000 O
b1 N
b1000 T
b1 S
b1000 Y
b1 X
b1000 ^
b0 ]
b1000 c
b0 b
b1000 h
b1000 m
b1000 r
b1010 #
b1010 %
b1100011 "
b1100011 $
#16000
b0 ^"
b1111 _"
b1000000000000 !
b1000000000000 '
b1 ,
b10 1
b0 0
b11 6
b0 5
b100 ;
b0 :
b101 @
b0 ?
b110 E
b111 J
b0 I
b1000 O
b0 N
b1000 T
b0 S
b1000 Y
b0 X
b1000 ^
b1000 c
b1 g
b1000 h
b1000 m
b1000 r
b100000 #
b100000 %
b10000000 "
b10000000 $
#17000
b0 ]"
b1 ^"
b1111 _"
b110100001000010 !
b110100001000010 '
b1 ,
b1 0
b10 1
b11 6
b10 :
b100 ;
b1 ?
b101 @
b11 D
b110 E
b1 I
b111 J
b11 N
b1000 O
b10 S
b1000 T
b10 X
b1000 Y
b10 ]
b1000 ^
b1 b
b1000 c
b1000 h
b1 g
b1000 m
b1 q
b1000 r
b10011101 #
b10011101 %
b10101010 "
b10101010 $
#18000
b0 ]"
b0 ^"
b1111 _"
b101100100010 !
b101100100010 '
b1 ,
b10 1
b1 0
b10 5
b11 6
b100 ;
b1 :
b101 @
b1 ?
b110 E
b10 D
b111 J
b1 I
b1000 O
b1 N
b1000 T
b10 S
b1000 Y
b0 X
b1000 ^
b0 ]
b1000 c
b1 b
b1000 h
b0 g
b1000 m
b1000 r
b0 q
b10011 #
b10011 %
b10010110 "
b10010110 $
#19000
b0 ]"
b0 ^"
b1111 _"
b10000110111 !
b10000110111 '
b1 +
b1 ,
b10 1
b1 0
b11 6
b1 5
b100 ;
b10 :
b101 @
b10 ?
b110 E
b0 D
b111 J
b10 I
b1000 O
b1 N
b1000 T
b1 S
b1 X
b1000 Y
b1000 ^
b1000 c
b0 b
b1000 h
b1000 m
b1000 r
b1010011 #
b1010011 %
b1101 "
b1101 $
#20000
b0 ]"
b1 ^"
b1111 _"
b101100100000111 !
b101100100000111 '
b1 ,
b1 +
b10 1
b1 0
b11 6
b1 5
b100 ;
b10 :
b101 @
b1 ?
b11 D
b110 E
b111 J
b10 I
b1000 O
b100 N
b1000 T
b10 S
b1000 Y
b10 X
b10 ]
b1000 ^
b1 b
b1000 c
b10 g
b1000 h
b1 l
b1000 m
b1000 r
b11010101 #
b11010101 %
b1101011 "
b1101011 $
#21000
b0 ^"
b1111 _"
b101011100 !
b101011100 '
b1 ,
b0 +
b10 1
b0 0
b11 6
b1 5
b100 ;
b1 :
b101 @
b1 ?
b110 E
b0 D
b111 J
b1 I
b1000 O
b0 N
b1000 T
b1 S
b1000 Y
b0 X
b1000 ^
b0 ]
b1000 c
b0 b
b1000 h
b0 g
b1000 m
b0 l
b1000 r
b10101110 #
b10101110 %
b10 "
b10 $
#22000
b0 ]"
b0 ^"
b1111 _"
b1011101110011 !
b1011101110011 '
b1 +
b1 ,
b1 0
b10 1
b11 6
b10 5
b100 ;
b11 :
b101 @
b11 ?
b11 D
b110 E
b111 J
b11 I
b10 N
b1000 O
b1000 T
b1 S
b10 X
b1000 Y
b10 ]
b1000 ^
b1 b
b1000 c
b1000 h
b1000 m
b1000 r
b11001111 #
b11001111 %
b11101 "
b11101 $
#23000
b0 ^"
b1111 _"
b101011110 !
b101011110 '
b1 ,
b0 +
b10 1
b1 0
b11 6
b1 5
b100 ;
b1 :
b101 @
b1 ?
b110 E
b0 D
b111 J
b1 I
b1000 O
b0 N
b1000 T
b1 S
b1000 Y
b0 X
b1000 ^
b0 ]
b1000 c
b0 b
b1000 h
b1000 m
b1000 r
b1010 #
b1010 %
b100011 "
b100011 $
#24000
b0 ]"
b0 ^"
b1111 _"
b10111101011000 !
b10111101011000 '
b1 ,
b10 1
b0 0
b11 6
b0 5
b100 ;
b1 :
b101 @
b1 ?
b10 D
b110 E
b111 J
b10 I
b1 N
b1000 O
b1000 T
b10 S
b10 X
b1000 Y
b10 ]
b1000 ^
b10 b
b1000 c
b1 g
b1000 h
b1000 m
b1000 r
b111100 #
b111100 %
b11001010 "
b11001010 $
#25000
b1 ]"
b10 ^"
b1111 _"
b1000001001110100 !
b1000001001110100 '
b1 ,
b10 1
b1 5
b11 6
b100 ;
b0 :
b101 @
b1 ?
b110 E
b1 D
b111 J
b1 I
b1000 O
b10 N
b1000 T
b11 S
b1000 Y
b1 X
b1000 ^
b1 ]
b1000 c
b1 b
b1000 h
b1 g
b1 l
b1000 m
b1 q
b1000 r
b10001010 #
b10001010 %
b11110010 "
b11110010 $
#26000
b0 ^"
b1111 _"
b0 ]"
b11011011011000 !
b11011011011000 '
b1 ,
b10 1
b11 6
b0 5
b1 :
b100 ;
b101 @
b1 ?
b110 E
b0 D
b111 J
b1 I
b1000 O
b1 N
b1000 T
b0 S
b1000 Y
b1 X
b1000 ^
b1 ]
b1000 c
b0 b
b1000 h
b1 g
b1000 m
b1 l
b1000 r
b0 q
b11011000 #
b11011000 %
b1000001 "
b1000001 $
#27000
b0 ]"
b1 ^"
b1111 _"
b100000000111000 !
b100000000111000 '
b1 ,
b10 1
b11 6
b100 ;
b1 :
b101 @
b1 ?
b1 D
b110 E
b111 J
b10 I
b1000 O
b1 N
b1 S
b1000 T
b1000 Y
b1 X
b1000 ^
b1 ]
b1 b
b1000 c
b1000 h
b1 g
b1000 m
b1 l
b1000 r
b10001001 #
b10001001 %
b1111000 "
b1111000 $
#28000
b1 ]"
b10 ^"
b1111 _"
b1010011100010010 !
b1010011100010010 '
b1 ,
b1 0
b10 1
b10 5
b11 6
b100 ;
b1 :
b101 @
b10 ?
b110 E
b11 D
b111 J
b10 I
b1000 O
b100 N
b1000 T
b100 S
b1000 Y
b10 X
b1000 ^
b11 ]
b1000 c
b10 b
b1000 h
b10 g
b1000 m
b1 l
b1 q
b1000 r
b10110110 #
b10110110 %
b11101011 "
b11101011 $
#29000
b10 ^"
b1111 _"
b1 ]"
b1000011010010100 !
b1000011010010100 '
b1 ,
b10 1
b0 0
b11 6
b1 5
b100 ;
b10 :
b101 @
b10 ?
b110 E
b1 D
b111 J
b1 I
b1000 O
b10 N
b1000 T
b11 S
b1000 Y
b11 X
b1000 ^
b1 ]
b1000 c
b1 b
b1000 h
b1 g
b1000 m
b1 l
b1000 r
b1 q
b10101110 #
b10101110 %
b11000110 "
b11000110 $
#30000
b0 ^"
b1111 _"
b0 ]"
b1111011011000 !
b1111011011000 '
b1 ,
b10 1
b11 6
b0 5
b100 ;
b1 :
b101 @
b1 ?
b110 E
b10 D
b111 J
b10 I
b1000 O
b10 N
b1000 T
b11 S
b1000 Y
b1 X
b1000 ^
b10 ]
b1000 c
b0 b
b1000 h
b1 g
b1000 m
b0 l
b1000 r
b0 q
b101010 #
b101010 %
b10111100 "
b10111100 $
#31000
b0 ]"
b0 ^"
b1111 _"
b10011011011 !
b10011011011 '
b1 +
b1 ,
b1 0
b10 1
b11 6
b100 ;
b1 :
b101 @
b1 ?
b110 E
b10 D
b111 J
b10 I
b1000 O
b10 N
b1000 T
b1 S
b1000 Y
b1 X
b1000 ^
b0 ]
b1000 c
b1000 h
b0 g
b1000 m
b1000 r
b1110001 #
b1110001 %
b1011 "
b1011 $
#32000
b0 ]"
b0 ^"
b1111 _"
b10100100001011 !
b10100100001011 '
b1 ,
b1 +
b10 1
b1 0
b10 5
b11 6
b100 ;
b10 :
b101 @
b1 ?
b110 E
b1 D
b111 J
b1 I
b1000 O
b1 N
b1000 T
b10 S
b1000 Y
b1 X
b1 ]
b1000 ^
b1000 c
b1000 h
b1 l
b1000 m
b1000 r
b1001111 #
b1001111 %
b10000101 "
b10000101 $
#33000
b0 ]"
b0 ^"
b1111 _"
b110101011110 !
b110101011110 '
b1 ,
b0 +
b10 1
b1 0
b11 6
b1 5
b100 ;
b1 :
b101 @
b11 ?
b110 E
b11 D
b111 J
b11 I
b1000 O
b10 N
b1000 T
b11 S
b1000 Y
b10 X
b1000 ^
b1 ]
b1000 c
b1000 h
b1000 m
b0 l
b1000 r
b111010 #
b111010 %
b111011 "
b111011 $
#34000
b0 ]"
b0 ^"
b1111 _"
b101001010110 !
b101001010110 '
b1 ,
b10 1
b1 0
b11 6
b1 5
b100 ;
b10 :
b101 @
b10 ?
b110 E
b11 D
b111 J
b11 I
b1000 O
b10 N
b1000 T
b10 S
b1000 Y
b1 X
b1000 ^
b1 ]
b1000 c
b1000 h
b1000 m
b1000 r
b10101 #
b10101 %
b1111110 "
b1111110 $
#35000
b1 ]"
b11 ^"
b1111 _"
b1100110001001001 !
b1100110001001001 '
b1 +
b1 ,
b10 1
b0 0
b11 6
b0 5
b100 ;
b1 :
b101 @
b10 ?
b110 E
b1 D
b111 J
b10 I
b1000 O
b11 N
b1000 T
b10 S
b1000 Y
b10 X
b1000 ^
b11 ]
b11 b
b1000 c
b10 g
b1000 h
b10 l
b1000 m
b1 q
b1000 r
b11011001 #
b11011001 %
b11110001 "
b11110001 $
#36000
b0 ^"
b1111 _"
b0 ]"
b1110100011000 !
b1110100011000 '
b1 ,
b0 +
b10 1
b11 6
b100 ;
b1 :
b101 @
b1 ?
b110 E
b0 D
b111 J
b0 I
b1000 O
b10 N
b1000 T
b10 S
b1000 Y
b1 X
b1000 ^
b0 ]
b1000 c
b1 b
b1000 h
b1 g
b1000 m
b0 l
b1000 r
b0 q
b1001100 #
b1001100 %
b1100010 "
b1100010 $
#37000
b0 ]"
b1 ^"
b1111 _"
b101100011010001 !
b101100011010001 '
b1 +
b1 ,
b10 0
b10 1
b11 5
b11 6
b100 ;
b100 :
b101 @
b100 ?
b11 D
b110 E
b10 I
b111 J
b1000 O
b11 N
b1000 T
b10 S
b1000 Y
b10 X
b10 ]
b1000 ^
b1000 c
b1 b
b1000 h
b0 g
b1000 m
b1 q
b1000 r
b10001111 #
b10001111 %
b10011111 "
b10011111 $
#38000
b1 ]"
b10 ^"
b1111 _"
b1011000101001000 !
b1011000101001000 '
b1 ,
b0 +
b10 1
b0 0
b11 6
b0 5
b100 ;
b1 :
b101 @
b10 ?
b110 E
b11 D
b111 J
b11 I
b1000 O
b100 N
b1000 T
b100 S
b1000 Y
b11 X
b1000 ^
b11 ]
b1000 c
b11 b
b10 g
b1000 h
b1 l
b1000 m
b1000 r
b1 q
b10110111 #
b10110111 %
b11111000 "
b11111000 $
#39000
b0 ^"
b1111 _"
b0 ]"
b11100100100100 !
b11100100100100 '
b1 ,
b10 1
b1 5
b11 6
b100 ;
b10 :
b101 @
b11 ?
b110 E
b11 D
b111 J
b100 I
b1000 O
b11 N
b1000 T
b10 S
b1000 Y
b10 X
b1000 ^
b10 ]
b1000 c
b1 b
b1000 h
b0 g
b1000 m
b1 l
b1000 r
b0 q
b1011100 #
b1011100 %
b10011111 "
b10011111 $
